{
    "defaultSeverity": "error",
    "extends": [
        "tslint:recommended"
    ],
    "jsRules": {},
    "rules": {
        "ban-types": false,
        "max-line-length": false,
        "prefer-for-of": false,
        "no-conditional-assignment": false,
        "no-reference": false,
        "no-var-requires": false,
        "object-literal-sort-keys": false,
        "object-literal-shorthand": false,
        "space-before-function-paren": false,
        "max-classes-per-file": false,
        "interface-name": false
    },
    "rulesDirectory": []
}
